<define-tag pagetitle>DLA-775-1 hplip</define-tag>
<define-tag report_date>2017-1-1</define-tag>
<define-tag secrefs>CVE-2015-0839 Bug##787353</define-tag>
<define-tag packages>hplip</define-tag>
<define-tag isvulnerable>yes</define-tag>
<define-tag fixed>yes</define-tag>
<define-tag fixed-section>no</define-tag>

#use wml::debian::security

