<define-tag pagetitle>DLA-1064-1 freeradius</define-tag>
<define-tag report_date>2017-8-25</define-tag>
<define-tag secrefs>CVE-2017-10978 CVE-2017-10979 CVE-2017-10980 CVE-2017-10981 CVE-2017-10982 CVE-2017-10983 Bug#868765</define-tag>
<define-tag packages>freeradius</define-tag>
<define-tag isvulnerable>yes</define-tag>
<define-tag fixed>yes</define-tag>
<define-tag fixed-section>no</define-tag>

#use wml::debian::security

