<define-tag pagetitle>DLA-1191-1 python-werkzeug</define-tag>
<define-tag report_date>2017-11-24</define-tag>
<define-tag secrefs>CVE-2016-10516</define-tag>
<define-tag packages>python-werkzeug</define-tag>
<define-tag isvulnerable>yes</define-tag>
<define-tag fixed>yes</define-tag>
<define-tag fixed-section>no</define-tag>

#use wml::debian::security

