<define-tag pagetitle>DLA-1422-1 linux</define-tag>
<define-tag report_date>2018-7-14</define-tag>
<define-tag secrefs>CVE-2017-5715 CVE-2017-5753 CVE-2018-1066 CVE-2018-1093 CVE-2018-1130 CVE-2018-3665 CVE-2018-5814 CVE-2018-9422 CVE-2018-10853 CVE-2018-10940 CVE-2018-11506 CVE-2018-1223 CVE-2018-1000204 Bug#898165</define-tag>
<define-tag packages>linux</define-tag>
<define-tag isvulnerable>yes</define-tag>
<define-tag fixed>yes</define-tag>
<define-tag fixed-section>no</define-tag>

#use wml::debian::security

