<define-tag pagetitle>DLA-1385-1 batik</define-tag>
<define-tag report_date>2018-5-25</define-tag>
<define-tag secrefs>CVE-2018-8013 Bug#899374</define-tag>
<define-tag packages>batik</define-tag>
<define-tag isvulnerable>yes</define-tag>
<define-tag fixed>yes</define-tag>
<define-tag fixed-section>no</define-tag>

#use wml::debian::security

