<define-tag pagetitle>DLA-1685-1 drupal7</define-tag>
<define-tag report_date>2019-03-04</define-tag>
<define-tag secrefs>CVE-2019-6338</define-tag>
<define-tag packages>drupal7</define-tag>
<define-tag isvulnerable>yes</define-tag>
<define-tag fixed>yes</define-tag>
<define-tag fixed-section>no</define-tag>

#use wml::debian::security

