<define-tag pagetitle>DLA-1673-1 wordpress</define-tag>
<define-tag report_date>2019-2-11</define-tag>
<define-tag secrefs>CVE-2018-20147 CVE-2018-20148 CVE-2018-20149 CVE-2018-20150 CVE-2018-20151 CVE-2018-20152 CVE-2018-20153 Bug#916403</define-tag>
<define-tag packages>wordpress</define-tag>
<define-tag isvulnerable>yes</define-tag>
<define-tag fixed>yes</define-tag>
<define-tag fixed-section>no</define-tag>

#use wml::debian::security

