<define-tag pagetitle>DLA-1681-1 gsoap</define-tag>
<define-tag report_date>2019-2-18</define-tag>
<define-tag secrefs>CVE-2019-7659</define-tag>
<define-tag packages>gsoap</define-tag>
<define-tag isvulnerable>yes</define-tag>
<define-tag fixed>yes</define-tag>
<define-tag fixed-section>no</define-tag>

#use wml::debian::security

