<define-tag pagetitle>DLA-685-2 libxi</define-tag>
<define-tag report_date>2016-12-29</define-tag>
<define-tag secrefs>Bug#849026</define-tag>
<define-tag packages>libxi</define-tag>
<define-tag isvulnerable>yes</define-tag>
<define-tag fixed>yes</define-tag>
<define-tag fixed-section>no</define-tag>

#use wml::debian::security

