<define-tag pagetitle>DLA-587-1 fontconfig</define-tag>
<define-tag report_date>2016-8-9</define-tag>
<define-tag secrefs>CVE-2016-5384 Bug#833570</define-tag>
<define-tag packages>fontconfig</define-tag>
<define-tag isvulnerable>yes</define-tag>
<define-tag fixed>yes</define-tag>
<define-tag fixed-section>no</define-tag>

#use wml::debian::security

