<define-tag pagetitle>DLA-610-1 tiff3</define-tag>
<define-tag report_date>2016-9-4</define-tag>
<define-tag secrefs>CVE-2010-2596 CVE-2013-1961 CVE-2014-8128 CVE-2014-8129 CVE-2014-9655 CVE-2015-1547 CVE-2015-8665 CVE-2015-8683 CVE-2016-3186 CVE-2016-3623 CVE-2016-3945 CVE-2016-3990 CVE-2016-3991 CVE-2016-5314 CVE-2016-5315 CVE-2016-5316 CVE-2016-5317 CVE-2016-5320 CVE-2016-5321 CVE-2016-5322 CVE-2016-5323 CVE-2016-5875 CVE-2016-6223</define-tag>
<define-tag packages>tiff3</define-tag>
<define-tag isvulnerable>yes</define-tag>
<define-tag fixed>yes</define-tag>
<define-tag fixed-section>no</define-tag>

#use wml::debian::security

