<define-tag pagetitle>DLA-729-1 tomcat7</define-tag>
<define-tag report_date>2016-12-1</define-tag>
<define-tag secrefs>CVE-2016-0762 CVE-2016-5018 CVE-2016-6794 CVE-2016-6796 CVE-2016-6797 CVE-2016-6816 CVE-2016-8735 Bug#841655 Bug#842662 Bug#842663 Bug#842664 Bug#842665 Bug#842666 Bug#845385</define-tag>
<define-tag packages>tomcat7</define-tag>
<define-tag isvulnerable>yes</define-tag>
<define-tag fixed>yes</define-tag>
<define-tag fixed-section>no</define-tag>

#use wml::debian::security

